%YAML 1.1
%TAG !u! tag:unity3d.com,2011:
--- !u!74 &7400000
AnimationClip:
  m_ObjectHideFlags: 0
  m_CorrespondingSourceObject: {fileID: 0}
  m_PrefabInstance: {fileID: 0}
  m_PrefabAsset: {fileID: 0}
  m_Name: Orc3 Death
  serializedVersion: 6
  m_Legacy: 0
  m_Compressed: 0
  m_UseHighQualityCurve: 1
  m_RotationCurves: []
  m_CompressedRotationCurves: []
  m_EulerCurves: []
  m_PositionCurves: []
  m_ScaleCurves: []
  m_FloatCurves: []
  m_PPtrCurves:
  - curve:
    - time: 0
      value: {fileID: 21300000, guid: cc6072811c74adc4baba1b764821ce0d, type: 3}
    - time: 0.016666668
      value: {fileID: 21300000, guid: 002c0681b0ecea542a60bf201299dd38, type: 3}
    - time: 0.033333335
      value: {fileID: 21300000, guid: 71a9bb59159cb044aa4b9f2b0612a4b9, type: 3}
    - time: 0.05
      value: {fileID: 21300000, guid: 7f6b301b1a4ef794499b5140aa15ac0e, type: 3}
    - time: 0.06666667
      value: {fileID: 21300000, guid: 8ead520c181731c40b8733da09549384, type: 3}
    - time: 0.083333336
      value: {fileID: 21300000, guid: 5c2c1705e5963a2408e197abe52e6931, type: 3}
    - time: 0.1
      value: {fileID: 21300000, guid: 0f08fffdcf70387488c8aa0f9198a9d8, type: 3}
    - time: 0.11666667
      value: {fileID: 21300000, guid: 64db2ee2a0072ab4faf31f67a8db9f3b, type: 3}
    - time: 0.13333334
      value: {fileID: 21300000, guid: a47d17111d9bb7348b7ae2be3677c91e, type: 3}
    - time: 0.15
      value: {fileID: 21300000, guid: 2513af0c689acd7419e6caf99932e7f6, type: 3}
    - time: 0.16666667
      value: {fileID: 21300000, guid: 3a9a0d9ed2d190d4bb798988b86cab79, type: 3}
    - time: 0.18333334
      value: {fileID: 21300000, guid: 8d112ff95c447404d9868538e21b1a6e, type: 3}
    - time: 0.2
      value: {fileID: 21300000, guid: 8a0f4e1da1d5dbe4190d666f57335aa6, type: 3}
    - time: 0.21666667
      value: {fileID: 21300000, guid: d1a85059ee200864395793ed28a9044a, type: 3}
    - time: 0.23333333
      value: {fileID: 21300000, guid: 446d0ac3c3896f443b6a20ea864259a4, type: 3}
    - time: 0.25
      value: {fileID: 21300000, guid: 1569513797f0fd64c9af98a73812d0a9, type: 3}
    - time: 0.26666668
      value: {fileID: 21300000, guid: cddf80ed7d8a0e542b7b78f237c861f8, type: 3}
    - time: 0.28333333
      value: {fileID: 21300000, guid: 77b62434fb6e92b438cedd1f545da6c9, type: 3}
    - time: 0.3
      value: {fileID: 21300000, guid: 200f11dba5d1f5e47a5a094fd4207eee, type: 3}
    - time: 0.31666666
      value: {fileID: 21300000, guid: 8fee141c992e5264286b6506ea0dde7e, type: 3}
    - time: 0.33333334
      value: {fileID: 21300000, guid: e315917904b21e4498ea75ab555fa900, type: 3}
    - time: 0.35
      value: {fileID: 21300000, guid: d3bfe9672d66ef645b6ac5c385ffacd8, type: 3}
    - time: 0.36666667
      value: {fileID: 21300000, guid: ef7fa657894dc4d49a0aa2c3322ee6fc, type: 3}
    - time: 0.38333333
      value: {fileID: 21300000, guid: eae14a7c923a46f46a63aedb5d9ad38c, type: 3}
    - time: 0.4
      value: {fileID: 21300000, guid: 7d199ddce8d548945972ce5344646230, type: 3}
    - time: 0.41666666
      value: {fileID: 21300000, guid: e05999d310ec2074db04135e806b818f, type: 3}
    - time: 0.43333334
      value: {fileID: 21300000, guid: 828dd40ba8fbaf14d89aebc68db5d6d5, type: 3}
    - time: 0.45
      value: {fileID: 21300000, guid: 6053f575e72f6344881965ac11f44a74, type: 3}
    - time: 0.46666667
      value: {fileID: 21300000, guid: 95807c4101c196a49b2c5ca7e3d7fabf, type: 3}
    - time: 0.48333332
      value: {fileID: 21300000, guid: d7b32a1e8bd2c264cb545e6860f9e333, type: 3}
    attribute: m_Sprite
    path: 
    classID: 212
    script: {fileID: 0}
  m_SampleRate: 60
  m_WrapMode: 0
  m_Bounds:
    m_Center: {x: 0, y: 0, z: 0}
    m_Extent: {x: 0, y: 0, z: 0}
  m_ClipBindingConstant:
    genericBindings:
    - serializedVersion: 2
      path: 0
      attribute: 0
      script: {fileID: 0}
      typeID: 212
      customType: 23
      isPPtrCurve: 1
    pptrCurveMapping:
    - {fileID: 21300000, guid: cc6072811c74adc4baba1b764821ce0d, type: 3}
    - {fileID: 21300000, guid: 002c0681b0ecea542a60bf201299dd38, type: 3}
    - {fileID: 21300000, guid: 71a9bb59159cb044aa4b9f2b0612a4b9, type: 3}
    - {fileID: 21300000, guid: 7f6b301b1a4ef794499b5140aa15ac0e, type: 3}
    - {fileID: 21300000, guid: 8ead520c181731c40b8733da09549384, type: 3}
    - {fileID: 21300000, guid: 5c2c1705e5963a2408e197abe52e6931, type: 3}
    - {fileID: 21300000, guid: 0f08fffdcf70387488c8aa0f9198a9d8, type: 3}
    - {fileID: 21300000, guid: 64db2ee2a0072ab4faf31f67a8db9f3b, type: 3}
    - {fileID: 21300000, guid: a47d17111d9bb7348b7ae2be3677c91e, type: 3}
    - {fileID: 21300000, guid: 2513af0c689acd7419e6caf99932e7f6, type: 3}
    - {fileID: 21300000, guid: 3a9a0d9ed2d190d4bb798988b86cab79, type: 3}
    - {fileID: 21300000, guid: 8d112ff95c447404d9868538e21b1a6e, type: 3}
    - {fileID: 21300000, guid: 8a0f4e1da1d5dbe4190d666f57335aa6, type: 3}
    - {fileID: 21300000, guid: d1a85059ee200864395793ed28a9044a, type: 3}
    - {fileID: 21300000, guid: 446d0ac3c3896f443b6a20ea864259a4, type: 3}
    - {fileID: 21300000, guid: 1569513797f0fd64c9af98a73812d0a9, type: 3}
    - {fileID: 21300000, guid: cddf80ed7d8a0e542b7b78f237c861f8, type: 3}
    - {fileID: 21300000, guid: 77b62434fb6e92b438cedd1f545da6c9, type: 3}
    - {fileID: 21300000, guid: 200f11dba5d1f5e47a5a094fd4207eee, type: 3}
    - {fileID: 21300000, guid: 8fee141c992e5264286b6506ea0dde7e, type: 3}
    - {fileID: 21300000, guid: e315917904b21e4498ea75ab555fa900, type: 3}
    - {fileID: 21300000, guid: d3bfe9672d66ef645b6ac5c385ffacd8, type: 3}
    - {fileID: 21300000, guid: ef7fa657894dc4d49a0aa2c3322ee6fc, type: 3}
    - {fileID: 21300000, guid: eae14a7c923a46f46a63aedb5d9ad38c, type: 3}
    - {fileID: 21300000, guid: 7d199ddce8d548945972ce5344646230, type: 3}
    - {fileID: 21300000, guid: e05999d310ec2074db04135e806b818f, type: 3}
    - {fileID: 21300000, guid: 828dd40ba8fbaf14d89aebc68db5d6d5, type: 3}
    - {fileID: 21300000, guid: 6053f575e72f6344881965ac11f44a74, type: 3}
    - {fileID: 21300000, guid: 95807c4101c196a49b2c5ca7e3d7fabf, type: 3}
    - {fileID: 21300000, guid: d7b32a1e8bd2c264cb545e6860f9e333, type: 3}
  m_AnimationClipSettings:
    serializedVersion: 2
    m_AdditiveReferencePoseClip: {fileID: 0}
    m_AdditiveReferencePoseTime: 0
    m_StartTime: 0
    m_StopTime: 0.5
    m_OrientationOffsetY: 0
    m_Level: 0
    m_CycleOffset: 0
    m_HasAdditiveReferencePose: 0
    m_LoopTime: 1
    m_LoopBlend: 0
    m_LoopBlendOrientation: 0
    m_LoopBlendPositionY: 0
    m_LoopBlendPositionXZ: 0
    m_KeepOriginalOrientation: 0
    m_KeepOriginalPositionY: 1
    m_KeepOriginalPositionXZ: 0
    m_HeightFromFeet: 0
    m_Mirror: 0
  m_EditorCurves: []
  m_EulerEditorCurves: []
  m_HasGenericRootTransform: 0
  m_HasMotionFloatCurves: 0
  m_Events: []
